513900 599935 452
119363 429322 449
349033 655221 509
370855 506998 449
128263 883208 525
393204 541973 470
428197 312563 449
930866 721822 525
757183 467478 509
110489 800638 509
86369 542240 470
404149 173117 443
548126 311414 470
347359 747172 509
925468 208201 525
465589 224000 449
516128 778336 509
940431 988073 458
893110 162898 525
445173 765947 509
836520 548750 509
882056 283339 525
312346 513098 470
797976 661851 504
186565 262542 443
10031 512235 470
406529 195219 443
857939 596906 525
519369 653079 509
494251 163382 449
661104 240808 509
106036 429425 449
247297 561604 470
413209 199841 449
697467 531740 509
442291 331466 449
54657 303124 443
179923 323585 443
170042 99766 383
451935 709869 509
972886 141891 525
19045 207379 383
42486 190670 383
989208 262249 525
341708 284588 389
130871 919247 525
960341 296111 525
386789 295598 441
616766 643783 509
118467 266110 443
20440 690459 509
685500 733677 504
693482 592931 509
487701 581787 470
904290 507852 525
835498 432952 509
593195 816679 509
480974 916823 525
10286 761355 509
157216 915393 525
709245 404010 509
440381 260019 449
919757 794961 525
998554 738941 525
251908 714222 509
566429 238912 470
91285 388608 443
398143 694577 509
646097 549391 509
347430 306091 441
907854 172593 525
128483 373723 443
737212 998509 525
698799 802476 504
9638 917509 525
4950 718303 509
526599 877835 525
123462 885515 525
425006 727595 509
615396 924053 525
520882 193284 470
797322 223837 509
157209 184872 370
684807 888824 525
108525 661573 509
701580 901725 525
79353 521477 470
461645 892683 525
428358 717326 509
705911 627892 504
167845 600071 470
853811 214371 525
836767 24612 509
166645 895555 525
721332 9844 509
73054 128134 354
61198 377049 443
760239 416963 509
388647 67317 443
853447 167117 525
747989 490004 509
894897 267628 525
294499 77313 443
932270 792654 525
171037 492430 449
139059 872508 525
503839 931396 525
715253 710783 411
523508 10234 470
341601 634850 509
919996 202783 525
511477 151102 449
843892 847291 401
788121 668514 504
14123 44013 324
23513 879085 525
581496 905446 525
137485 236456 443
663126 183302 509
189090 702512 509
812389 440927 509
8228 373608 443
314754 372563 441
970245 140538 525
650942 969398 525
360175 301038 441
441929 259406 449
260900 540372 470
485326 938396 525
990526 158677 525
84269 206614 383
217347 699668 509
939846 37573 525
912553 826851 525
426898 84828 449
80642 362721 443
860864 96520 525
513297 484937 470
803106 709688 468
898213 674650 525
898062 243454 525
297706 734000 509
929091 116426 525
638182 353874 509
138200 577151 470
589830 289737 470
845449 862010 419
763522 638233 504
650180 696235 442
678355 862178 525
443632 287008 449
723371 886626 525
265626 100150 443
563792 140913 470
414692 131340 449
355725 489665 449
891525 141633 525
639664 143776 509
612886 422897 470
699221 244846 509
338463 137996 443
731207 187899 509
190161 635559 509
860858 982702 507
139936 837373 509
707722 320814 509
606694 69134 470
954530 517816 525
864687 43111 525
488454 685548 509
797940 587773 509
832405 533462 509
307065 387693 441
891055 669562 525
318876 383559 441
558889 560670 359
627548 85929 509
100092 3720 351
327958 229448 443
669331 686638 385
668239 34630 509
322103 579718 470
322858 377608 441
421989 163886 449
881101 412437 525
799959 754645 468
25035 370606 443
544241 467930 470
556670 906144 525
950321 349284 525
558996 777653 509
788286 456256 509
567887 535169 452
28032 351565 443
466697 367589 449
360866 275253 441
902521 292181 525
204082 973651 525
685673 425622 509
240080 578222 470
