2191 542709 470
166666 977212 525
944582 401686 525
248478 752050 509
54740 225901 386
652322 117170 509
935394 269238 525
922779 548666 525
536284 57612 470
511633 859736 525
440302 398022 449
167806 66707 383
889631 262565 525
641349 227380 509
122724 520053 470
626234 416904 470
113308 665045 509
652074 628966 416
785345 769460 437
771815 768968 393
707379 878756 525
192168 870189 525
268409 193292 443
271559 381242 441
24860 331073 443
503687 289313 449
719221 571146 509
527094 570102 452
519503 698690 509
69662 461567 449
249940 329894 407
205289 60922 383
608777 437612 470
532524 400008 470
103901 418678 449
810114 472245 509
328940 531741 470
266061 762167 509
833181 409426 509
206226 619128 470
89795 990214 525
401405 529134 470
216519 212043 386
644417 218503 509
972888 4426 525
122948 465070 449
298427 414617 449
181489 130133 383
268900 663955 509
167849 744768 509
144287 47390 375
84476 661722 509
868895 740345 525
388509 758568 509
177302 651120 509
215521 194398 373
66061 384789 443
646564 978534 525
662444 245330 509
941623 78847 525
993869 917244 507
394625 325313 441
887274 495009 525
256024 755720 509
212458 681181 509
583031 287069 470
561696 462894 470
931602 55991 525
487084 454646 444
810489 569430 509
399868 529440 470
592230 510808 470
905391 167979 525
118185 293190 443
263859 454441 449
959944 136692 525
939777 272626 525
736597 829077 468
865696 419961 525
738912 776453 468
851545 992365 507
626307 891442 525
991421 336165 525
347893 704325 509
970577 665675 525
711728 399620 509
297238 719214 509
939846 145355 525
760306 651987 504
476675 21093 449
865344 988775 507
970570 216082 525
821653 344621 509
56696 489455 449
329022 66564 443
531292 590953 452
683376 204602 509
301620 551902 470
626868 816403 504
544669 291102 470
817432 346089 509
686705 922740 525
98636 466744 449
515487 216937 470
659896 669901 442
809389 368357 509
338533 860999 525
240651 434879 449
259931 999128 525
941074 653478 525
718221 19781 509
215266 686674 509
483256 692465 509
372267 424772 449
244735 541698 470
483461 207939 449
807374 960714 525
376231 969769 525
772691 317620 509
855806 488022 525
381415 845081 525
542496 589496 452
10292 360818 443
199655 610664 470
139162 515771 470
470754 171469 449
81321 832671 509
981143 223493 525
699743 380360 509
562789 683339 509
151487 165315 383
770223 239391 509
677658 771860 504
656058 270244 509
524655 752002 509
414135 906806 525
579671 830034 509
347351 717514 509
104543 127579 354
654241 54125 509
126183 31937 354
394882 757080 509
425643 568009 470
420557 36952 449
590368 72836 470
923149 88882 525
716512 123020 509
939906 471358 525
76024 248565 443
706217 528619 509
251768 716196 509
591114 718372 509
442976 281205 449
595547 584948 403
825362 175147 509
324746 915297 525
317972 385532 441
392584 226912 443
570927 15918 470
703194 242774 509
755081 511787 509
638179 899443 525
197343 764570 509
89227 360612 443
151567 946736 525
672117 599308 509
221864 348496 443
2783 279306 443
343636 746390 509
452822 424083 400
463937 529689 470
728944 832013 468
666409 902381 525
658544 850900 525
297520 992418 525
836141 354139 509
345170 958664 525
568856 437633 470
77637 70856 351
560900 604708 434
825569 554872 509
187557 218242 386
605437 615229 447
469176 676996 509
426314 76613 449
426424 455573 400
443510 280377 449
329382 877506 525
196599 633139 509
858942 915533 476
693778 60805 509
408835 301563 441
327685 571057 470
999148 303199 525
661577 914749 525
471339 39559 449
303042 871557 525
526488 491919 470
380282 682424 509
426863 965372 525
